{
      "ropsten":{
        "gateway": "0xBC6fcce7c5487d43830a219CA6E7B83238B41e71",
        "gasReceiver": "0xbE406F0189A0B4cf3A05C286473D23791Dd44Cc6",
        "ExecutableSample":"0xDd4fB2fAa1c2556e627192fC849D59CE8Aa50610"
      },

      "neartest":{
        "gateway": "0x304acf330bbE08d1e512eefaa92F6a57871fD895",
        "gasReceiver": "0xA2C84547Db9732B27D45c06218DDAEFcc71e452D",
        "ExecutableSample":"0xDd4fB2fAa1c2556e627192fC849D59CE8Aa50610"

      }
}


  